{
  "title" : "Celebrazione 💒",
  "description" : "",
  "content" : {
        "date" : "Sabato 3 Ottobre 2020",
        "hour" : "10:30",
        "venue" : "Chiesa Santo Stefano",
        "address" : "Piazza Santo Stefano 10",
        "city" : "Nerviano"
    }
}
