{
  "brand" : "Sodium Theme",
  "logotext" : "PL",
  "links" : [
    {
      "title" : "Home",
      "href" : ""
    },
    {
      "title" : "Celebrazione",
      "href" : "#celebration"
    },
    {
      "title" : "Ricevimento",
      "href" : "#reception"
    },
    {
      "title" : "Lista Nozze",
      "href" : "#weddinglist"
    },
    {
      "title" : "News",
      "href" : "/blog"
    },
    {
      "title" : "Contatti",
      "href" : "#contact"
    }
  ]
}
