{
  "title" : "Lista Nozze 💝",
  "description" : "Cari amici, in queste settimane stiamo raccogliendo le idee su ciò che sarà utile nella nostra casa, che piano piano si sta preparando ad accoglierci. Proprio per questo, abbiamo deciso di realizzare la nostra lista nozze, che troverete al link qui sotto.  \n  \nPer ciò che riguarda la luna di miele, attendiamo che i tempi siano più tranquilli e consentano di viaggiare con maggior serenità: nel frattempo, però, ci prepariamo facendo progetti e grandi sogni…con la speranza che prestissimo prendano forma! Se qualcuno lo desiderasse, a questo stesso link potrete trovare anche la modalità con cui aiutarci a preparare i bagagli non appena sarà possibile!✈️  \n  \n**...Grazie di cuore!**  \n  \n**[💝 Lista Nozze Online](https://given2.us/PaolaLorenzo)**  \n**[🆘 Hai bisogno di aiuto?](https://drive.google.com/file/d/1dLeuGaEbuBfjHrOgorIJ81qqHdGSawlq/view?usp=sharing)**  \n"
}
